ISA 616 Project 2
…
Next, we will be reviewing values of the columns we plan to use in our analysis to make sure that our data entries are consistent, and fixing any issues that arise. We will focus this effort on the columns that we identified earlier as being critical to our analysis.

First, we will review and clean the values of survey_city. For this column, we will focus on making sure that the values for the 4 C’s (Chicago, Cleveland, Cincinnati, and Columbus) match. For example, we will update any typos to make sure that our data is consistent for these city values.

survey_city

Code

# check values of survey_city
value_counts <- fsb_data %>%
  group_by(survey_city) %>%
  summarise(Count = n())
value_counts

# A tibble: 297 × 2
   survey_city Count
   <chr>       <int>
 1 Addison         1
 2 Akron          12
 3 Albany          1
 4 Alexandria      1
 5 Alpharetta      1
 6 Ann Arbor       1
 7 Annapolis       1
 8 Arlington       4
 9 Atlanta        11
10 Auburn          1
# ℹ 287 more rows
…
# fix values of survey_city for 4 C's
fsb_data$survey_city[fsb_data$survey_city == 'CLEVELAND'] <- 'Cleveland'
fsb_data$survey_city[fsb_data$survey_city == 'Cincinatti'] <- 'Cincinnati'
fsb_data$survey_city[fsb_data$survey_city == 'Cincinnati, OH'] <- 'Cincinnati'
fsb_data$survey_city[fsb_data$survey_city == 'Cincinnnati'] <- 'Cincinnati'
fsb_data$survey_city[fsb_data$survey_city == 'Colubmus'] <- 'Columbus'
fsb_data$survey_city[fsb_data$survey_city == 'chicago'] <- 'Chicago'
fsb_data$survey_city[fsb_data$survey_city == 'cleveland'] <- 'Cleveland'

value_counts1 <- fsb_data %>%
  group_by(survey_city) %>%
  summarise(Count = n())
value_counts1

# A tibble: 290 × 2
   survey_city Count
   <chr>       <int>
 1 Addison         1
 2 Akron          12
 3 Albany          1
 4 Alexandria      1
 5 Alpharetta      1
 6 Ann Arbor       1
 7 Annapolis       1
 8 Arlington       4
 9 Atlanta        11
10 Auburn          1
# ℹ 280 more rows

survey_state

Now that survey_city has been cleaned, we will review and clean the values of survey_state. Here, we will focus on making sure that all states are assigned a 2 letter identifier, and that all versions of that state’s spelling in the data set have been updated to match that state’s identifier.

Code

# check values for survey_state
value_counts <- fsb_data %>%
  group_by(survey_state) %>%
  summarise(Count = n())
value_counts

# A tibble: 126 × 2
   survey_state            Count
   <chr>                   <int>
 1 AR                          3
 2 AZ                          6
 3 Belize                      1
 4 CA                         38
 5 CO                         28
 6 CT                          8
 7 California                  5
 8 China                       4
 9 Colorado                    1
10 Colorado/ United States     1
# ℹ 116 more rows
…
value_counts2 <- fsb_data %>%
  group_by(survey_state) %>%
  summarise(Count = n())
value_counts2

# A tibble: 51 × 2
   survey_state Count
   <chr>        <int>
 1 AR               3
 2 AZ               6
 3 Belize           1
 4 CA              43
 5 CO              30
 6 CT               9
 7 China            4
 8 DC              13
 9 DE               1
10 FL              23
# ℹ 41 more rows

survey_salary

Nect, we will review and clean the values of survey_salary. Here, we will look for any non-numeric variables in the data.

Code

# check values for survey_salary
value_counts <- fsb_data %>%
  group_by(survey_salary) %>%
  summarise(Count = n())
value_counts

# A tibble: 150 × 2
   survey_salary Count
           <dbl> <int>
 1         10000     1
 2         15600     1
 3         17000     1
 4         20800     1
 5         24000     3
 6         24960     1
 7         25000     1
 8         26520     1
 9         28000     3
10         29000     1
# ℹ 140 more rows
…
# nothing to change here

survey_deptfunc

Since survey_salary did not need any cleaning of its values, we will move on to cleaning survey_deptfunc. To make the values of this column match, we will use functions to strip the values and only return the first recorded value for the column. We decided to only return the first recordered function because it is possibly the most relevant since the student entered it first, and it makes our data much cleaner and more concise for our analysis.

Code

# check values for survey_deptfunc
value_counts <- fsb_data %>%
  group_by(survey_deptfunc) %>%
  summarise(Count = n())
value_counts

# A tibble: 253 × 2
   survey_deptfunc                                                         Count
   <chr>                                                                   <int>
 1 "Accounting"                                                              228
 2 "Accounting\r\n Advertising / Public Relations"                             1
 3 "Accounting\r\n Advertising / Public Relations\r\n Analytics\r\n Finan…     1
 4 "Accounting\r\n Analytics\r\n Consulting"                                   1
 5 "Accounting\r\n Analytics\r\n Consulting\r\n Finance\r\n Information T…     2
 6 "Accounting\r\n Analytics\r\n Consulting\r\n IT Assurance / IT Audit"       1
 7 "Accounting\r\n Analytics\r\n Finance"                                      2
 8 "Accounting\r\n Analytics\r\n Finance\r\n Marketing / Sales"                1
 9 "Accounting\r\n Analytics\r\n Information Technology"                       1
10 "Accounting\r\n Consulting"                                                 3
# ℹ 243 more rows
…
